{
	"0C": ["F3","DA","68"],
	"19": ["FD","73","72","8B","B2","F2","88"],
	"24": ["D3","68","5B","73"],
	"48": ["F2"],
	"5B": ["8F","83","A0","24"],
	"68": ["8F","F2","73","24","8B","0C"],
	"72": ["19","AD","73"],
	"73": ["68","D2","19","D3","72","24"],
	"7E": ["F3","A1"],
	"83": ["A0","5B","A1"],
	"88": ["B2","A9","19"],
	"8B": ["B1","A1","68","19"],
	"8F": ["5B","68","D2"],
	"96": ["A9","E9"],
	"A0": ["83","AD","5B","E9","D3"],
	"A1": ["E9","8B","DA","7E","F3","83"],
	"A9": ["F2","88","DA","96","B2"],
	"AD": ["D3","A0","72"],
	"B1": ["D3","8B"],
	"B2": ["DA","88","19","A9"],
	"D2": ["73","8F"],
	"D3": ["B1","AD","24","73","A0"],
	"DA": ["B2","0C","A1","A9"],
	"E9": ["A1","A0","96"],
	"F2": ["68","A9","19","48","FD"],
	"F3": ["0C","7E","A1"],
	"FD": ["19","F2"]
}