{
	"01": ["EC","4F","16","73","4C"],
	"0A": ["A8","27","68","98","2B"],
	"0C": ["B6","4F"],
	"16": ["D1","01","2B"],
	"27": ["A8","0A","4C"],
	"2B": ["A8","4F","16","0A","36"],
	"36": ["FE","2B"],
	"4C": ["4F","D1","5E","27","01","68","B6"],
	"4F": ["01","2B","4C","A8","5E","0C","EC"],
	"5E": ["B6","4C","4F","D1","F7","98"],
	"68": ["0A","4C"],
	"73": ["FE","D1","01","B6"],
	"98": ["5E","0A"],
	"A8": ["2B","0A","4F","27","FE"],
	"B6": ["0C","5E","EC","73","F7","4C"],
	"D1": ["16","4C","73","5E"],
	"EC": ["01","B6","F7","4F"],
	"F7": ["FE","EC","B6","5E"],
	"FE": ["73","A8","36","F7"]
}